…
The data frame `bio` contains biographical information on members. Each
row represents a biographical entry. There is one entry by member
(N<sub>bio</sub> = N<sub>members</sub>).

``` r
members$bio
#> # A tibble: 4,089 x 12
#>    id      geburtsdatum geburtsort            geburtsland sterbedatum geschlecht
#>    <chr>   <date>       <chr>                 <chr>       <date>      <chr>     
#>  1 110000… 1930-10-20   Stuttgart             <NA>        2008-01-17  männlich  
#>  2 110000… 1909-04-09   Siegen                <NA>        1991-12-02  männlich  
#>  3 110000… 1913-05-26   Parabutsch            Jugoslawien 1994-02-18  weiblich  
#>  4 110000… 1933-11-06   Berlin                <NA>        2019-09-14  weiblich  
#>  5 110000… 1950-06-09   Teterow, Kr. Teterow… <NA>        NA          männlich  
#>  6 110000… 1919-11-10   Masburg / Kreis Coch… <NA>        2013-05-25  männlich  
#>  7 110000… 1912-09-28   Düsseldorf            <NA>        1992-01-25  männlich  
#>  8 110000… 1876-01-05   Köln                  <NA>        1967-04-19  männlich  
#>  9 110000… 1944-06-22   Drangstedt / Krs. We… <NA>        2004-10-25  weiblich  
#> 10 110000… 1920-10-31   München               <NA>        2000-12-28  männlich  
#> # … with 4,079 more rows, and 6 more variables: familienstand <chr>,
#> #   religion <chr>, beruf <chr>, partei_kurz <chr>, vita_kurz <chr>,
#> #   veroeffentlichungspflichtiges <chr>
```

The data frame `wp` contains data on the parliamentary terms served by
the members. Each row represents a member-term. Members might have
served multiple terms (N<sub>terms</sub> &gt; N<sub>members</sub>).

``` r
members$wp
#> # A tibble: 11,627 x 9
#>    id          wp mdbwp_von  mdbwp_bis  wkr_nummer wkr_name wkr_land liste
#>    <chr>    <int> <date>     <date>          <int> <chr>    <chr>    <chr>
#>  1 11000001     5 1965-10-19 1969-10-19        174 <NA>     BWG      <NA> 
#>  2 11000001     6 1969-10-20 1972-09-22        174 <NA>     BWG      <NA> 
#>  3 11000001     7 1972-12-13 1976-12-13        174 <NA>     BWG      <NA> 
#>  4 11000001     8 1976-12-14 1980-11-04        174 <NA>     BWG      <NA> 
#>  5 11000001     9 1980-11-04 1983-03-29        174 <NA>     BWG      <NA> 
#>  6 11000001    10 1983-03-29 1987-02-18        174 <NA>     BWG      <NA> 
#>  7 11000001    11 1987-02-18 1990-12-20        174 <NA>     BWG      <NA> 
#>  8 11000002     3 1957-10-15 1961-10-15         NA <NA>     <NA>     NRW  
#>  9 11000002     4 1961-10-17 1965-10-17         NA <NA>     <NA>     NRW  
#> 10 11000002     5 1965-10-19 1969-10-19         NA <NA>     <NA>     NRW  
#> # … with 11,617 more rows, and 1 more variable: mandatsart <chr>
```

The data frame `inst` contains records on functions occupied by members
inside institutions of the Bundestag. Each row represents an
member-term-function. Members might have had multiple functions during
multiple terms (N<sub>functions</sub> &gt; N<sub>terms</sub> &gt;
N<sub>members</sub>).

``` r
members$inst
#> # A tibble: 15,858 x 9
#>    id        wp insart_lang ins_lang   mdbins_von mdbins_bis fkt_lang fktins_von
#>    <chr>  <int> <chr>       <chr>      <date>     <date>     <chr>    <date>    
#>  1 11000…     5 Fraktion/G… Fraktion … 1965-10-19 1969-10-19 <NA>     NA        
#>  2 11000…     6 Fraktion/G… Fraktion … 1969-10-20 1972-09-22 <NA>     NA        
#>  3 11000…     7 Fraktion/G… Fraktion … 1972-12-13 1976-12-13 <NA>     NA        
#>  4 11000…     8 Fraktion/G… Fraktion … 1976-12-14 1980-11-04 <NA>     NA        
#>  5 11000…     9 Fraktion/G… Fraktion … 1980-11-04 1983-03-29 <NA>     NA        
#>  6 11000…    10 Fraktion/G… Fraktion … 1983-03-29 1987-02-18 <NA>     NA        
#>  7 11000…    11 Fraktion/G… Fraktion … 1987-02-18 1990-12-20 <NA>     NA        
#>  8 11000…     3 Fraktion/G… Fraktion … 1957-10-15 1961-10-15 <NA>     NA        
#>  9 11000…     4 Fraktion/G… Fraktion … 1961-10-17 1965-10-17 <NA>     NA        
#> 10 11000…     5 Fraktion/G… Fraktion … 1965-10-19 1969-10-19 <NA>     NA        
#> # … with 15,848 more rows, and 1 more variable: fktins_bis <date>
```
…
``` r
members_df <- import_members(condensed_df = TRUE)
#> Downloading pre-processed data (version: 2021-03-12) from GitHub
#> Converting list to data frame...
#> Done.
members_df[c("nachname", "vorname", "wp", "fraktion")]
#> # A tibble: 11,627 x 4
#>    nachname  vorname    wp fraktion                                             
#>    <chr>     <chr>   <int> <chr>                                                
#>  1 Abelein   Manfred     5 Fraktion der Christlich Demokratischen Union/Christl…
#>  2 Abelein   Manfred     6 Fraktion der Christlich Demokratischen Union/Christl…
#>  3 Abelein   Manfred     7 Fraktion der Christlich Demokratischen Union/Christl…
#>  4 Abelein   Manfred     8 Fraktion der Christlich Demokratischen Union/Christl…
#>  5 Abelein   Manfred     9 Fraktion der Christlich Demokratischen Union/Christl…
#>  6 Abelein   Manfred    10 Fraktion der Christlich Demokratischen Union/Christl…
#>  7 Abelein   Manfred    11 Fraktion der Christlich Demokratischen Union/Christl…
#>  8 Achenbach Ernst       3 Fraktion der Freien Demokratischen Partei            
#>  9 Achenbach Ernst       4 Fraktion der Freien Demokratischen Partei            
#> 10 Achenbach Ernst       5 Fraktion der Freien Demokratischen Partei            
#> # … with 11,617 more rows
```
…
